{
  "authentication": [
    {
      "user_id": 1,
      "username": "admin",
      "password": "$2b$10$hs/VozRYb7LGQd4rDspm6eUzh0yBDdRI/23WhbnorC2k8kOG4kr.6",
      "roles": "[\"admin\",\"user\"]"
    }
  ],
  "candidates": [
    {"candidate_id": 1, "first_name": "Alex", "last_name": "Bloom", "email": "alexbloom@gmail.com", "phone": "6369934718", "city": "New York", "state": "New York", "country": "USA", "industry": "Technology", "job_title": "Front end developer", "domain": "[\"HTML\",\"CSS\",\"ReactJS\",\"JavaScript\"]", "years_of_experience": 2, "hard_skills": "[\"Software Engineering\",\"Graphic Web design\",\"Web development\"]", "social_media_urls": "{\"linked_in\": \"linked/in/alexbloom\",\"twitter\":\"twitter/@alexbloom\"}" },
    {"candidate_id": 2, "first_name": "Martha", "last_name": "White", "email": "marthawhite@hotmail.com", "phone": "2547717171", "city": "Milan", "country": "Italy", "industry": "Finance", "job_title": "Accountant", "domain": "[\"Accounting software\",\"Excel\"]", "years_of_experience": 5, "hard_skills": "[\"Accounting\",\"Balancing sheets\",\"Salary issuing or something\"]", "social_media_urls": "{\"linked_in\": \"linked/in/marthawhite\",\"twitter\":\"twitter/@marthawhite\", \"github\": \"github.com/mwhite\"}" },
    {"candidate_id": 3, "first_name": "Amy", "last_name": "Something", "email": "amysomething@yahoo.co.uk", "phone": "73916462", "city": "Beijing", "country": "China", "industry": "Technology", "job_title": "Data scientist", "domain": "[\"R\",\"Python\",\"Hadoop\"]", "years_of_experience": 3, "hard_skills": "[\"Software engineering\",\"Data analysis\"]", "social_media_urls": "{\"linked_in\": \"linked/in/amysomething\",\"twitter\":\"twitter/@amysomething\"}" }
  ]
}
